Pipeline_RISCV/Pipeline_RISCV.sim/sim_1/behav/xsim/simulate.log
Time resolution is 1 ps
==================================================
        STARTING RV32I SMOKE TEST SIMULATION      
==================================================
Time: 40000 | PC = 0x00000000 | Inst = 0x00000013 (NOP   ) | RS1 =          0 | RS2 =          0 | IMM =          0
-----------------------------------------------------------------
Time: 50000 | PC = 0x00000000 | Inst = 0xff0100b7 (LUI   ) | RS1 =          0 | RS2 =          0 | IMM =          0
-----------------------------------------------------------------
Time: 60000 | PC = 0x00000004 | Inst = 0xf0008093 (ALU-I ) | RS1 =          0 | RS2 =          0 | IMM = 4278255616
-----------------------------------------------------------------
Time: 70000 | PC = 0x00000008 | Inst = 0x00000013 (NOP   ) | RS1 =          0 | RS2 =          0 | IMM = 4294967040
          -> [EX] FORWARDING ACTIVE | RS1_sel: 01, RS2_sel: 00  | ALU1 = 4278255616 | ALU2 = 4294967040  
-----------------------------------------------------------------
Time: 80000 | PC = 0x0000000c | Inst = 0x00000013 (NOP   ) | RS1 =          0 | RS2 =          0 | IMM =          0
          -> [WB]  WRITE REG | x1 <- 0xff010000
-----------------------------------------------------------------
Time: 90000 | PC = 0x00000010 | Inst = 0x00000013 (NOP   ) | RS1 =          0 | RS2 =          0 | IMM =          0
          -> [WB]  WRITE REG | x1 <- 0xff00ff00
-----------------------------------------------------------------
Time: 100000 | PC = 0x00000014 | Inst = 0xxxxxxxxx (UNKNWN) | RS1 =          0 | RS2 =          0 | IMM =          0
-----------------------------------------------------------------
Time: 110000 | PC = 0x00000018 | Inst = 0xxxxxxxxx (UNKNWN) | RS1 =          x | RS2 =          x | IMM =          X
-----------------------------------------------------------------
Time: 120000 | PC = 0x0000001c | Inst = 0xxxxxxxxx (UNKNWN) | RS1 =          x | RS2 =          x | IMM =          X
-----------------------------------------------------------------
Time: 130000 | PC = 0x00000020 | Inst = 0xxxxxxxxx (UNKNWN) | RS1 =          x | RS2 =          x | IMM =          X
-----------------------------------------------------------------
Time: 140000 | PC = 0x00000024 | Inst = 0xxxxxxxxx (UNKNWN) | RS1 =          x | RS2 =          x | IMM =          X
-----------------------------------------------------------------
Time: 150000 | PC = 0x00000028 | Inst = 0xxxxxxxxx (UNKNWN) | RS1 =          x | RS2 =          x | IMM =          X
-----------------------------------------------------------------
Time: 160000 | PC = 0x0000002c | Inst = 0xxxxxxxxx (UNKNWN) | RS1 =          x | RS2 =          x | IMM =          X
-----------------------------------------------------------------
Time: 170000 | PC = 0x00000030 | Inst = 0xxxxxxxxx (UNKNWN) | RS1 =          x | RS2 =          x | IMM =          X
-----------------------------------------------------------------
Time: 180000 | PC = 0x00000034 | Inst = 0xxxxxxxxx (UNKNWN) | RS1 =          x | RS2 =          x | IMM =          X
-----------------------------------------------------------------
Time: 190000 | PC = 0x00000038 | Inst = 0xxxxxxxxx (UNKNWN) | RS1 =          x | RS2 =          x | IMM =          X
-----------------------------------------------------------------
Time: 200000 | PC = 0x0000003c | Inst = 0xxxxxxxxx (UNKNWN) | RS1 =          x | RS2 =          x | IMM =          X
-----------------------------------------------------------------
Time: 210000 | PC = 0x00000040 | Inst = 0xxxxxxxxx (UNKNWN) | RS1 =          x | RS2 =          x | IMM =          X
-----------------------------------------------------------------
Time: 220000 | PC = 0x00000044 | Inst = 0xxxxxxxxx (UNKNWN) | RS1 =          x | RS2 =          x | IMM =          X
-----------------------------------------------------------------
Time: 230000 | PC = 0x00000048 | Inst = 0xxxxxxxxx (UNKNWN) | RS1 =          x | RS2 =          x | IMM =          X
-----------------------------------------------------------------
Time: 240000 | PC = 0x0000004c | Inst = 0xxxxxxxxx (UNKNWN) | RS1 =          x | RS2 =          x | IMM =          X
-----------------------------------------------------------------
Time: 250000 | PC = 0x00000050 | Inst = 0xxxxxxxxx (UNKNWN) | RS1 =          x | RS2 =          x | IMM =          X
-----------------------------------------------------------------
Time: 260000 | PC = 0x00000054 | Inst = 0xxxxxxxxx (UNKNWN) | RS1 =          x | RS2 =          x | IMM =          X
-----------------------------------------------------------------
Time: 270000 | PC = 0x00000058 | Inst = 0xxxxxxxxx (UNKNWN) | RS1 =          x | RS2 =          x | IMM =          X
-----------------------------------------------------------------
Time: 280000 | PC = 0x0000005c | Inst = 0xxxxxxxxx (UNKNWN) | RS1 =          x | RS2 =          x | IMM =          X
-----------------------------------------------------------------
Time: 290000 | PC = 0x00000060 | Inst = 0xxxxxxxxx (UNKNWN) | RS1 =          x | RS2 =          x | IMM =          X
-----------------------------------------------------------------
Time: 300000 | PC = 0x00000064 | Inst = 0xxxxxxxxx (UNKNWN) | RS1 =          x | RS2 =          x | IMM =          X
-----------------------------------------------------------------
Time: 310000 | PC = 0x00000068 | Inst = 0xxxxxxxxx (UNKNWN) | RS1 =          x | RS2 =          x | IMM =          X
-----------------------------------------------------------------
Time: 320000 | PC = 0x0000006c | Inst = 0xxxxxxxxx (UNKNWN) | RS1 =          x | RS2 =          x | IMM =          X
-----------------------------------------------------------------
Time: 330000 | PC = 0x00000070 | Inst = 0xxxxxxxxx (UNKNWN) | RS1 =          x | RS2 =          x | IMM =          X
-----------------------------------------------------------------
Time: 340000 | PC = 0x00000074 | Inst = 0xxxxxxxxx (UNKNWN) | RS1 =          x | RS2 =          x | IMM =          X
-----------------------------------------------------------------
Time: 350000 | PC = 0x00000078 | Inst = 0xxxxxxxxx (UNKNWN) | RS1 =          x | RS2 =          x | IMM =          X
-----------------------------------------------------------------
Time: 360000 | PC = 0x0000007c | Inst = 0xxxxxxxxx (UNKNWN) | RS1 =          x | RS2 =          x | IMM =          X
-----------------------------------------------------------------
Time: 370000 | PC = 0x00000080 | Inst = 0xxxxxxxxx (UNKNWN) | RS1 =          x | RS2 =          x | IMM =          X
-----------------------------------------------------------------
Time: 380000 | PC = 0x00000084 | Inst = 0xxxxxxxxx (UNKNWN) | RS1 =          x | RS2 =          x | IMM =          X
-----------------------------------------------------------------
Time: 390000 | PC = 0x00000088 | Inst = 0xxxxxxxxx (UNKNWN) | RS1 =          x | RS2 =          x | IMM =          X
-----------------------------------------------------------------
Time: 400000 | PC = 0x0000008c | Inst = 0xxxxxxxxx (UNKNWN) | RS1 =          x | RS2 =          x | IMM =          X
-----------------------------------------------------------------
Time: 410000 | PC = 0x00000090 | Inst = 0xxxxxxxxx (UNKNWN) | RS1 =          x | RS2 =          x | IMM =          X
-----------------------------------------------------------------
Time: 420000 | PC = 0x00000094 | Inst = 0xxxxxxxxx (UNKNWN) | RS1 =          x | RS2 =          x | IMM =          X
-----------------------------------------------------------------
Time: 430000 | PC = 0x00000098 | Inst = 0xxxxxxxxx (UNKNWN) | RS1 =          x | RS2 =          x | IMM =          X
-----------------------------------------------------------------
Time: 440000 | PC = 0x0000009c | Inst = 0xxxxxxxxx (UNKNWN) | RS1 =          x | RS2 =          x | IMM =          X
-----------------------------------------------------------------
Time: 450000 | PC = 0x000000a0 | Inst = 0xxxxxxxxx (UNKNWN) | RS1 =          x | RS2 =          x | IMM =          X
-----------------------------------------------------------------
Time: 460000 | PC = 0x000000a4 | Inst = 0xxxxxxxxx (UNKNWN) | RS1 =          x | RS2 =          x | IMM =          X
-----------------------------------------------------------------
Time: 470000 | PC = 0x000000a8 | Inst = 0xxxxxxxxx (UNKNWN) | RS1 =          x | RS2 =          x | IMM =          X
-----------------------------------------------------------------
Time: 480000 | PC = 0x000000ac | Inst = 0xxxxxxxxx (UNKNWN) | RS1 =          x | RS2 =          x | IMM =          X
-----------------------------------------------------------------
Time: 490000 | PC = 0x000000b0 | Inst = 0xxxxxxxxx (UNKNWN) | RS1 =          x | RS2 =          x | IMM =          X
-----------------------------------------------------------------
Time: 500000 | PC = 0x000000b4 | Inst = 0xxxxxxxxx (UNKNWN) | RS1 =          x | RS2 =          x | IMM =          X
-----------------------------------------------------------------
Time: 510000 | PC = 0x000000b8 | Inst = 0xxxxxxxxx (UNKNWN) | RS1 =          x | RS2 =          x | IMM =          X
-----------------------------------------------------------------
Time: 520000 | PC = 0x000000bc | Inst = 0xxxxxxxxx (UNKNWN) | RS1 =          x | RS2 =          x | IMM =          X
-----------------------------------------------------------------
Time: 530000 | PC = 0x000000c0 | Inst = 0xxxxxxxxx (UNKNWN) | RS1 =          x | RS2 =          x | IMM =          X
-----------------------------------------------------------------
Time: 540000 | PC = 0x000000c4 | Inst = 0xxxxxxxxx (UNKNWN) | RS1 =          x | RS2 =          x | IMM =          X
-----------------------------------------------------------------
Time: 550000 | PC = 0x000000c8 | Inst = 0xxxxxxxxx (UNKNWN) | RS1 =          x | RS2 =          x | IMM =          X
-----------------------------------------------------------------
Time: 560000 | PC = 0x000000cc | Inst = 0xxxxxxxxx (UNKNWN) | RS1 =          x | RS2 =          x | IMM =          X
-----------------------------------------------------------------
Time: 570000 | PC = 0x000000d0 | Inst = 0xxxxxxxxx (UNKNWN) | RS1 =          x | RS2 =          x | IMM =          X
-----------------------------------------------------------------
Time: 580000 | PC = 0x000000d4 | Inst = 0xxxxxxxxx (UNKNWN) | RS1 =          x | RS2 =          x | IMM =          X
-----------------------------------------------------------------
Time: 590000 | PC = 0x000000d8 | Inst = 0xxxxxxxxx (UNKNWN) | RS1 =          x | RS2 =          x | IMM =          X
-----------------------------------------------------------------
Time: 600000 | PC = 0x000000dc | Inst = 0xxxxxxxxx (UNKNWN) | RS1 =          x | RS2 =          x | IMM =          X
-----------------------------------------------------------------
Time: 610000 | PC = 0x000000e0 | Inst = 0xxxxxxxxx (UNKNWN) | RS1 =          x | RS2 =          x | IMM =          X
-----------------------------------------------------------------
Time: 620000 | PC = 0x000000e4 | Inst = 0xxxxxxxxx (UNKNWN) | RS1 =          x | RS2 =          x | IMM =          X
-----------------------------------------------------------------
Time: 630000 | PC = 0x000000e8 | Inst = 0xxxxxxxxx (UNKNWN) | RS1 =          x | RS2 =          x | IMM =          X
-----------------------------------------------------------------
Time: 640000 | PC = 0x000000ec | Inst = 0xxxxxxxxx (UNKNWN) | RS1 =          x | RS2 =          x | IMM =          X
-----------------------------------------------------------------
Time: 650000 | PC = 0x000000f0 | Inst = 0xxxxxxxxx (UNKNWN) | RS1 =          x | RS2 =          x | IMM =          X
-----------------------------------------------------------------
Time: 660000 | PC = 0x000000f4 | Inst = 0xxxxxxxxx (UNKNWN) | RS1 =          x | RS2 =          x | IMM =          X
-----------------------------------------------------------------
Time: 670000 | PC = 0x000000f8 | Inst = 0xxxxxxxxx (UNKNWN) | RS1 =          x | RS2 =          x | IMM =          X
-----------------------------------------------------------------
Time: 680000 | PC = 0x000000fc | Inst = 0xxxxxxxxx (UNKNWN) | RS1 =          x | RS2 =          x | IMM =          X
-----------------------------------------------------------------
Time: 690000 | PC = 0x00000100 | Inst = 0xxxxxxxxx (UNKNWN) | RS1 =          x | RS2 =          x | IMM =          X
-----------------------------------------------------------------
Time: 700000 | PC = 0x00000104 | Inst = 0xxxxxxxxx (UNKNWN) | RS1 =          x | RS2 =          x | IMM =          X
-----------------------------------------------------------------
Time: 710000 | PC = 0x00000108 | Inst = 0xxxxxxxxx (UNKNWN) | RS1 =          x | RS2 =          x | IMM =          X
-----------------------------------------------------------------
Time: 720000 | PC = 0x0000010c | Inst = 0xxxxxxxxx (UNKNWN) | RS1 =          x | RS2 =          x | IMM =          X
-----------------------------------------------------------------
Time: 730000 | PC = 0x00000110 | Inst = 0xxxxxxxxx (UNKNWN) | RS1 =          x | RS2 =          x | IMM =          X
-----------------------------------------------------------------
Time: 740000 | PC = 0x00000114 | Inst = 0xxxxxxxxx (UNKNWN) | RS1 =          x | RS2 =          x | IMM =          X
-----------------------------------------------------------------
Time: 750000 | PC = 0x00000118 | Inst = 0xxxxxxxxx (UNKNWN) | RS1 =          x | RS2 =          x | IMM =          X
-----------------------------------------------------------------
Time: 760000 | PC = 0x0000011c | Inst = 0xxxxxxxxx (UNKNWN) | RS1 =          x | RS2 =          x | IMM =          X
-----------------------------------------------------------------
Time: 770000 | PC = 0x00000120 | Inst = 0xxxxxxxxx (UNKNWN) | RS1 =          x | RS2 =          x | IMM =          X
-----------------------------------------------------------------
Time: 780000 | PC = 0x00000124 | Inst = 0xxxxxxxxx (UNKNWN) | RS1 =          x | RS2 =          x | IMM =          X
-----------------------------------------------------------------
Time: 790000 | PC = 0x00000128 | Inst = 0xxxxxxxxx (UNKNWN) | RS1 =          x | RS2 =          x | IMM =          X
-----------------------------------------------------------------
Time: 800000 | PC = 0x0000012c | Inst = 0xxxxxxxxx (UNKNWN) | RS1 =          x | RS2 =          x | IMM =          X
-----------------------------------------------------------------
Time: 810000 | PC = 0x00000130 | Inst = 0xxxxxxxxx (UNKNWN) | RS1 =          x | RS2 =          x | IMM =          X
-----------------------------------------------------------------
Time: 820000 | PC = 0x00000134 | Inst = 0xxxxxxxxx (UNKNWN) | RS1 =          x | RS2 =          x | IMM =          X
-----------------------------------------------------------------
Time: 830000 | PC = 0x00000138 | Inst = 0xxxxxxxxx (UNKNWN) | RS1 =          x | RS2 =          x | IMM =          X
-----------------------------------------------------------------
Time: 840000 | PC = 0x0000013c | Inst = 0xxxxxxxxx (UNKNWN) | RS1 =          x | RS2 =          x | IMM =          X
-----------------------------------------------------------------
Time: 850000 | PC = 0x00000140 | Inst = 0xxxxxxxxx (UNKNWN) | RS1 =          x | RS2 =          x | IMM =          X
-----------------------------------------------------------------
Time: 860000 | PC = 0x00000144 | Inst = 0xxxxxxxxx (UNKNWN) | RS1 =          x | RS2 =          x | IMM =          X
-----------------------------------------------------------------
Time: 870000 | PC = 0x00000148 | Inst = 0xxxxxxxxx (UNKNWN) | RS1 =          x | RS2 =          x | IMM =          X
-----------------------------------------------------------------
Time: 880000 | PC = 0x0000014c | Inst = 0xxxxxxxxx (UNKNWN) | RS1 =          x | RS2 =          x | IMM =          X
-----------------------------------------------------------------
Time: 890000 | PC = 0x00000150 | Inst = 0xxxxxxxxx (UNKNWN) | RS1 =          x | RS2 =          x | IMM =          X
-----------------------------------------------------------------
Time: 900000 | PC = 0x00000154 | Inst = 0xxxxxxxxx (UNKNWN) | RS1 =          x | RS2 =          x | IMM =          X
-----------------------------------------------------------------
Time: 910000 | PC = 0x00000158 | Inst = 0xxxxxxxxx (UNKNWN) | RS1 =          x | RS2 =          x | IMM =          X
-----------------------------------------------------------------
Time: 920000 | PC = 0x0000015c | Inst = 0xxxxxxxxx (UNKNWN) | RS1 =          x | RS2 =          x | IMM =          X
-----------------------------------------------------------------
Time: 930000 | PC = 0x00000160 | Inst = 0xxxxxxxxx (UNKNWN) | RS1 =          x | RS2 =          x | IMM =          X
-----------------------------------------------------------------
Time: 940000 | PC = 0x00000164 | Inst = 0xxxxxxxxx (UNKNWN) | RS1 =          x | RS2 =          x | IMM =          X
-----------------------------------------------------------------
Time: 950000 | PC = 0x00000168 | Inst = 0xxxxxxxxx (UNKNWN) | RS1 =          x | RS2 =          x | IMM =          X
-----------------------------------------------------------------
Time: 960000 | PC = 0x0000016c | Inst = 0xxxxxxxxx (UNKNWN) | RS1 =          x | RS2 =          x | IMM =          X
-----------------------------------------------------------------
Time: 970000 | PC = 0x00000170 | Inst = 0xxxxxxxxx (UNKNWN) | RS1 =          x | RS2 =          x | IMM =          X
-----------------------------------------------------------------
Time: 980000 | PC = 0x00000174 | Inst = 0xxxxxxxxx (UNKNWN) | RS1 =          x | RS2 =          x | IMM =          X
-----------------------------------------------------------------
Time: 990000 | PC = 0x00000178 | Inst = 0xxxxxxxxx (UNKNWN) | RS1 =          x | RS2 =          x | IMM =          X
-----------------------------------------------------------------
Time: 1000000 | PC = 0x0000017c | Inst = 0xxxxxxxxx (UNKNWN) | RS1 =          x | RS2 =          x | IMM =          X
-----------------------------------------------------------------
